Covid Data Project
…
## Parsed with column specification:
## cols(
##   Date = col_date(format = ""),
##   `Country/Region` = col_character(),
##   `Province/State` = col_character(),
##   Lat = col_double(),
##   Long = col_double(),
##   Confirmed = col_double(),
##   Recovered = col_double(),
##   Deaths = col_double()
## )

## # A tibble: 25 x 8
##    Date       `Country/Region` `Province/State`   Lat  Long Confirmed Recovered
##    <date>     <chr>            <chr>            <dbl> <dbl>     <dbl>     <dbl>
##  1 2020-01-22 Afghanistan      <NA>                33    65         0         0
##  2 2020-01-23 Afghanistan      <NA>                33    65         0         0
##  3 2020-01-24 Afghanistan      <NA>                33    65         0         0
##  4 2020-01-25 Afghanistan      <NA>                33    65         0         0
##  5 2020-01-26 Afghanistan      <NA>                33    65         0         0
##  6 2020-01-27 Afghanistan      <NA>                33    65         0         0
##  7 2020-01-28 Afghanistan      <NA>                33    65         0         0
##  8 2020-01-29 Afghanistan      <NA>                33    65         0         0
##  9 2020-01-30 Afghanistan      <NA>                33    65         0         0
## 10 2020-01-31 Afghanistan      <NA>                33    65         0         0
## #  with 15 more rows, and 1 more variable: Deaths <dbl>
…
Alright, every place were missing more granular data makes sensewell lets see what areas were covering with this data set.

# How many areas are we counting
us_data %>% distinct(province_state) # so all the states + dc + some other US stuff (sorry Gman) + two cruise ships

## # A tibble: 58 x 1
##    province_state          
##    <chr>                   
##  1 American Samoa          
##  2 Guam                    
##  3 Northern Mariana Islands
##  4 Puerto Rico             
##  5 Virgin Islands          
##  6 Alabama                 
##  7 Alaska                  
##  8 Arizona                 
##  9 Arkansas                
## 10 California              
## #  with 48 more rows

us_data %>% distinct(admin2) # okay so we have 1903 localities 

## # A tibble: 1,903 x 1
##    admin2  
##    <chr>   
##  1 <NA>    
##  2 Autauga 
##  3 Baldwin 
##  4 Barbour 
##  5 Bibb    
##  6 Blount  
##  7 Bullock 
##  8 Butler  
##  9 Calhoun 
## 10 Chambers
## #  with 1,893 more rows
…
        daily_confirmed = confirmed - lag(confirmed),
        daily_confirmed3=rollapply(daily_confirmed,3,mean,fill=0))%>%
    replace_na(list(daily_deaths3 = 0, daily_confirmed3 = 0, daily_deaths =0, daily_confirmed = 0))
    
byLocality <- us_step1 %>%
    group_by(combined_key) %>%
    nest()
    
byLocality

## # A tibble: 3,262 x 2
## # Groups:   combined_key [3,262]
##    combined_key             data              
##    <chr>                    <list>            
##  1 American Samoa           <tibble [98  10]>
##  2 Guam                     <tibble [98  10]>
##  3 Northern Mariana Islands <tibble [98  10]>
##  4 Puerto Rico              <tibble [98  10]>
##  5 Virgin Islands           <tibble [98  10]>
##  6 Autauga, Alabama         <tibble [98  10]>
##  7 Baldwin, Alabama         <tibble [98  10]>
##  8 Barbour, Alabama         <tibble [98  10]>
##  9 Bibb, Alabama            <tibble [98  10]>
## 10 Blount, Alabama          <tibble [98  10]>
## #  with 3,252 more rows

Its not very easy to look into this on an aggregate scale - but you can still peek.

byLocality$data[[5]]

## # A tibble: 98 x 10
##    admin2 date       province_state population deaths confirmed daily_deaths
##    <chr>  <date>     <chr>               <dbl>  <dbl>     <dbl>        <dbl>
##  1 <NA>   2020-01-22 Virgin Islands     107268      0         0            0
##  2 <NA>   2020-01-23 Virgin Islands     107268      0         0            0
##  3 <NA>   2020-01-24 Virgin Islands     107268      0         0            0
##  4 <NA>   2020-01-25 Virgin Islands     107268      0         0            0
##  5 <NA>   2020-01-26 Virgin Islands     107268      0         0            0
##  6 <NA>   2020-01-27 Virgin Islands     107268      0         0            0
##  7 <NA>   2020-01-28 Virgin Islands     107268      0         0            0
##  8 <NA>   2020-01-29 Virgin Islands     107268      0         0            0
##  9 <NA>   2020-01-30 Virgin Islands     107268      0         0            0
## 10 <NA>   2020-01-31 Virgin Islands     107268      0         0            0
## #  with 88 more rows, and 3 more variables: daily_deaths3 <dbl>,
## #   daily_confirmed <dbl>, daily_confirmed3 <dbl>
…
local_model <- function(df) {
    lm(daily_deaths3 ~ daily_confirmed3 + date, data = df)
}

The dataframes are in a list so we can use purrrs map() to apply our function to each element. Purrr is kind of a scary package for me tbh.

byLocality <- byLocality %>%
    mutate(model = map(data, local_model))

We did it this way to keep the results and data tied together and avoid errors.

byLocality

## # A tibble: 3,262 x 3
## # Groups:   combined_key [3,262]
##    combined_key             data               model 
##    <chr>                    <list>             <list>
##  1 American Samoa           <tibble [98  10]> <lm>  
##  2 Guam                     <tibble [98  10]> <lm>  
##  3 Northern Mariana Islands <tibble [98  10]> <lm>  
##  4 Puerto Rico              <tibble [98  10]> <lm>  
##  5 Virgin Islands           <tibble [98  10]> <lm>  
##  6 Autauga, Alabama         <tibble [98  10]> <lm>  
##  7 Baldwin, Alabama         <tibble [98  10]> <lm>  
##  8 Barbour, Alabama         <tibble [98  10]> <lm>  
##  9 Bibb, Alabama            <tibble [98  10]> <lm>  
## 10 Blount, Alabama          <tibble [98  10]> <lm>  
## #  with 3,252 more rows

Add residuals

byLocality <- byLocality %>% 
  mutate(
    resids = map2(data, model, add_residuals)
  )

Unnest stem.

resids <- unnest(byLocality, resids)

resids

## # A tibble: 319,676 x 14
## # Groups:   combined_key [3,262]
##    combined_key data  model admin2 date       province_state population deaths
##    <chr>        <lis> <lis> <chr>  <date>     <chr>               <dbl>  <dbl>
##  1 American Sa <tib <lm>  <NA>   2020-01-22 American Samoa      55641      0
##  2 American Sa <tib <lm>  <NA>   2020-01-23 American Samoa      55641      0
##  3 American Sa <tib <lm>  <NA>   2020-01-24 American Samoa      55641      0
##  4 American Sa <tib <lm>  <NA>   2020-01-25 American Samoa      55641      0
##  5 American Sa <tib <lm>  <NA>   2020-01-26 American Samoa      55641      0
##  6 American Sa <tib <lm>  <NA>   2020-01-27 American Samoa      55641      0
##  7 American Sa <tib <lm>  <NA>   2020-01-28 American Samoa      55641      0
##  8 American Sa <tib <lm>  <NA>   2020-01-29 American Samoa      55641      0
##  9 American Sa <tib <lm>  <NA>   2020-01-30 American Samoa      55641      0
## 10 American Sa <tib <lm>  <NA>   2020-01-31 American Samoa      55641      0
## #  with 319,666 more rows, and 6 more variables: confirmed <dbl>,
## #   daily_deaths <dbl>, daily_deaths3 <dbl>, daily_confirmed <dbl>,
## #   daily_confirmed3 <dbl>, resid <dbl>
…
model_deets <- byLocality %>% 
  mutate(glance = map(model, broom::glance)) %>% 
  unnest(glance)

## Warning in stats::summary.lm(x): essentially perfect fit: summary may be
## unreliable

model_deets

## # A tibble: 3,262 x 15
## # Groups:   combined_key [3,262]
##    combined_key data  model resids r.squared adj.r.squared  sigma statistic
##    <chr>        <lis> <lis> <list>     <dbl>         <dbl>  <dbl>     <dbl>
##  1 American Sa <tib <lm>  <tibb   NaN          NaN      0         NaN   
##  2 Guam         <tib <lm>  <tibb     0.333        0.319  0.121      23.8 
##  3 Northern Ma <tib <lm>  <tibb     0.567        0.558  0.0534     62.2 
##  4 Puerto Rico  <tib <lm>  <tibb     0.527        0.517  1.05       52.8 
##  5 Virgin Isla <tib <lm>  <tibb     0.174        0.157  0.118      10.0 
##  6 Autauga, Al <tib <lm>  <tibb     0.113        0.0942 0.121       6.04
##  7 Baldwin, Al <tib <lm>  <tibb     0.218        0.202  0.0864     13.3 
##  8 Barbour, Al <tib <lm>  <tibb   NaN          NaN      0         NaN   
##  9 Bibb, Alaba <tib <lm>  <tibb   NaN          NaN      0         NaN   
## 10 Blount, Ala <tib <lm>  <tibb   NaN          NaN      0         NaN   
## #  with 3,252 more rows, and 7 more variables: p.value <dbl>, df <int>,
## #   logLik <dbl>, AIC <dbl>, BIC <dbl>, deviance <dbl>, df.residual <int>
…
